Name,Address,Name,Longitude,Latitude,Member Status,Working groups,Country
Prof Georg VOGELER,Graz,Prof Georg VOGELER,15.3667 ,47.0833,MC Substitute,1 2,Austria
Dr Martina SCHOLGER,Graz,Dr Martina SCHOLGER,15.3667 ,47.0833,MC Member,1,Austria
Dr Bjorn-Olav DOZO,Liège,Dr Bjorn-Olav DOZO,5.5702,50.6387,MC Substitute,,Belgium
Prof Dirk VAN HULLE,Antwerp,Prof Dirk VAN HULLE,4.4015,51.2139,MC Member,2 3,Belgium
Prof Mike KESTEMONT,Antwerp,Prof Mike KESTEMONT,4.4015,51.2139,WG Leader,2 3,Belgium
Prof Walter DAELEMANS,Antwerp,Prof Walter DAELEMANS,4.4015,51.2139,MC Substitute,1 2,Belgium
Ms Jasmina DJONLAGIC SMAILBEGOVIC,Tuzla,Ms Jasmina DJONLAGIC SMAILBEGOVIC,18.6667,44.5333,MC Member,1 3,Bosna i Hercegovina
Prof Meliha HANDZIC,Sarajevo,Prof Meliha HANDZIC,18.3833,43.8500  ,MC Member,1 2,Bosna i Hercegovina
Prof Elissaveta BOYADZHIEVA,Blagoevgrad,Prof Elissaveta BOYADZHIEVA,23.1000,42.0167,MC Member,,Bulgaria
Prof Dobrinka PEICHEVA,Blagoevgrad,Prof Dobrinka PEICHEVA,23.1000,42.0167,MC Member,2,Bulgaria
Dr Antonija PRIMORAC,Rijeka,Dr Antonija PRIMORAC,14.4500,45.3333,WG Leader,3,Croatia
Dr Benedikt PERAK,Rijeka,Dr Benedikt PERAK,14.4500,45.3333,MC Substitute,3,Croatia
Dr Davor NIKOLIC,Zagreb,Dr Davor NIKOLIC,15.9667,45.8000,MC Substitute,,Croatia
Dr Marina PROTRKA ŠTIMEC,Zagreb,Dr Marina PROTRKA Å TIMEC,15.9667,45.8000,MC Substitute,3,Croatia
Dr Neven JOVANOVIC,Zagreb,Dr Neven JOVANOVIC,15.9667,45.8000,MC Member,1,Croatia
Dr Jaroslava HLAVÁČOVÁ,Prague,Dr Jaroslava HLAVÁČOVÁ,14.4333,50.1000,MC Substitute,,Czech Republic
Dr Michal KŘEN,Prague,Dr Michal KŘEN,14.4333,50.1000,MC Substitute,1 2,Czech Republic
Dr Silvie CINKOVA,Prague,Dr Silvie CINKOVA,14.4333,50.1000,MC Member,1 2,Czech Republic
Prof Pavel SMRZ,Brno,Prof Pavel SMRZ,16.6667,49.2167,MC Member,2,Czech Republic
Dr Jakob LADEGAARD,Aarhus,Dr Jakob LADEGAARD,10.2167,56.1667,MC Member,,Denmark
Dr Mads Rosendahl THOMSEN,Aarhus,Dr Mads Rosendahl THOMSEN,10.2167,56.1667,MC Member,,Denmark
Dr Benedicte PINCEMIN,Lyon,Dr Benedicte PINCEMIN,4.8467,45.7485,MC Substitute,2,France
Dr Serge HEIDEN,Lyon,Dr Serge HEIDEN,4.8467,45.7485,MC Member,1 2,France
Prof Alexandre GEFEN,Lyon,Prof Alexandre GEFEN,4.8467,45.7485,MC Substitute,,France
Dr Sascha DIWERSY,Montpellier,Dr Sascha DIWERSY,3.8772,43610,MC Member,,France
Dr Mersiha ISMAJLOSKA,Ohrid,Dr Mersiha ISMAJLOSKA,20.8000,41.1167,MC Member,,fyR Macedonia
Mr Nikolche MICKOSKI,Skopje,Mr Nikolche MICKOSKI,21.4667,42.0000,MC Member,,fyR Macedonia
Ms Carolin ODEBRECHT,Berlin,Ms Carolin ODEBRECHT,13.4000 ,52.5167,WG Leader,1,Germany
Prof Anke LÜDELING,Berlin,Prof Anke LÜDELING,13.4000 ,52.5167,MC Substitute,1 2,Germany
Prof Christof SCHÖCH,Trier,Prof Christof SCHÖCH,6.6333,49.7500,MC Chair,1 2 3 4,Germany
Prof Fotis JANNIDIS,Würzburg,Prof Fotis JANNIDIS,9.9361  ,49.7878,MC Member,2 3,Germany
Ms Katerina KANELLOPOULOU,Corfu,Ms Katerina KANELLOPOULOU,19.9197,39.6200,MC Member,4,Greece
Prof George MIKROS,Athens,Prof George MIKROS,23.7333,37.9833,MC Member,1 2,Greece
Dr Gábor PALKÓ,Budapest,Dr Gábor PALKÓ,19.05,47.5,MC Member,1 2 3 4,Hungary
Dr Péter KISZL,Budapest,Dr Péter KISZL,19.05,47.5,MC Member,,Hungary
Ms Jessie LABOV,Budapest,Ms Jessie LABOV,19.05,47.5,MC Substitute,,Hungary
Prof Hugh CRAIG,Newcastle,Prof Hugh CRAIG,151.7845,-32.9278,International Partner Country,,Australia
Prof David HOOVER,New York,Prof David HOOVER,-74.0000,40.7000,International Partner Country,,United States
Dr Justin TONRA,Galway,Dr Justin TONRA,-9.0489,53.2719  ,WG Leader,3 4,Ireland
Prof Gerardine MEANEY,Dublin,Prof Gerardine MEANEY,-6.2489,53.3331,MC Member,3,Ireland
Prof Susan SCHREIBMAN,Kildare,Prof Susan SCHREIBMAN,-6.9144,53.1561,MC Member,3,Ireland
Prof Moshe KOPPEL,Tel Aviv,Prof Moshe KOPPEL,34.7667  ,32.0833  ,MC Member,,Israel
Prof Yaakov HACOHEN-KERNER,Jerusalem,Prof Yaakov HACOHEN-KERNER,35.2333,31.7667,MC Member,2 3,Israel
Prof Rocco CORONATO,Padova,Prof Rocco CORONATO,11.8833  ,45.4167 ,MC Substitute,3,Italy
Dr Massimo SALGARO,Verona,Dr Massimo SALGARO,11.0000,45.4500,MC Substitute,3,Italy
Dr Stefano SBALCHIERO,Padova,Dr Stefano SBALCHIERO,11.8833  ,45.4167 ,MC Substitute,2,Italy
Prof Stefano ONDELLI,Trieste,Prof Stefano ONDELLI,13.7800,45.6486,MC Member,1 3,Italy
Prof Arjuna TUZZI,Padova,Prof Arjuna TUZZI,11.8833  ,45.4167 ,MC Member,1 2,Italy
Dr Eva EGLAJA-KRISTSONE,Riga,Dr Eva EGLAJA-KRISTSONE,24.1000,56.9500,MC Member,1 2 3,Latvia
Dr Andrius SUMINAS,Vilnius,Dr Andrius SUMINAS,25.3167,54.6833,MC Substitute,,Lithuania
Dr Arūnas GUDINAVIČIUS,Vilnius,Dr Arūnas GUDINAVIČIUS,25.3167,54.6833,MC Member,,Lithuania
Dr Colin LAYFIELD,Msida,Dr Colin LAYFIELD,14.5000,35.9000,MC Substitute,,Malta
Dr Joel AZZOPARDI,Msida,Dr Joel AZZOPARDI,14.5000,35.9000,MC Member,1 2,Malta
Dr Marc KOSCIEJEW,Msida,Dr Marc KOSCIEJEW,14.5000,35.9000,MC Member,3,Malta
Dr Andjela JAKSIC-STOJANOVIC,Podgorica,Dr Andjela JAKSIC-STOJANOVIC,19.2833,42.4667,MC Substitute,,Montenegro
Dr Kruna RATKOVIC,Podgorica,Dr Kruna RATKOVIC,19.2833,42.4667,MC Substitute,2,Montenegro
Ms Dragana MARINKOVIĆ-DUBLJEVIĆ,Podgorica,Ms Dragana MARINKOVIĆ-DUBLJEVIĆ,19.2833,42.4667,MC Member,1 3,Montenegro
Ms Milena LUKSIC-DJUROVIC,Montenegro,Ms Milena LUKSIC-DJUROVIC,19.3333,42.5,MC Substitute,,Montenegro
Professor Biljana STAMATOVIC,Podgorica,Professor Biljana STAMATOVIC,19.2833,42.4667,MC Member,2 4,Montenegro
Ms Corina KOOLEN,Amsterdam,Ms Corina KOOLEN,4.9,52.35,MC Substitute,1,Netherlands
Prof Karina VAN DALEN-OSKAM,Amsterdam,Prof Karina VAN DALEN-OSKAM,4.9,52.35,MC Member,3,Netherlands
Dr Christian-Emil ORE,Oslo,Dr Christian-Emil ORE,10.7500,59.9333,MC Member,1,Norway
Prof Diana SANTOS,Oslo,Prof Diana SANTOS,10.7500,59.9333,MC Member,1 2 3,Norway
Dr Jan RYBICKI,Krakow,Dr Jan RYBICKI,19.9167,50.0500,MC Member,1 2 3,Poland
Dr Maciej MARYL,Warszawa,Dr Maciej MARYL,21.0000  ,52.2500  ,MC Substitute,2 3,Poland
Prof Maciej EDER,Krakow,Prof Maciej EDER,19.9167,50.0500,MC Vice Chair,1 2 4,Poland
Prof Raquel AMARO,Lisbon,Prof Raquel AMARO,-9.1333,38.7167 ,MC Member,1 2,Portugal
Prof Isabel BRANCO,Lisbon,Prof Isabel BRANCO,-9.1333,38.7167 ,MC Substitute,,Portugal
Prof Paulo SILVA PEREIRA,Coimbra,Prof Paulo SILVA PEREIRA,-8.4196,40.2056,MC Member,2 3,Portugal
Dr Adrian TUDURACHI,Cluj-Napoca,Dr Adrian TUDURACHI,23.6167   ,46.7833,MC Substitute,,Romania
Dr Roxana PATRAS,Iași,Dr Roxana PATRAS,27.6333,47.15,MC Substitute,3,Romania
Dr Voica PUSCASIU,Cluj-Napoca,Dr Voica PUSCASIU,23.6167,46.7833,MC Substitute,4,Romania
Prof Corina-Elena MOLDOVAN,Cluj-Napoca,Prof Corina-Elena MOLDOVAN,23.6167   ,46.7833,MC Member,3 4,Romania
Prof Luiza Catrinel MARINESCU,Bucharest,Prof Luiza Catrinel MARINESCU,26.1,44.4333,MC Member,1 3 4,Romania
Prof Ruxandra VASILESCU,Bucharest,Prof Ruxandra VASILESCU,26.1,44.4333,MC Substitute,,Romania
Dr Adam SOFRONIJEVIC,Belgrade,Dr Adam SOFRONIJEVIC,20.5,44.8333,MC Substitute,,Serbia
Dr Ranka STANKOVIC,Belgrade,Dr Ranka STANKOVIC,20.5,44.8333,MC Substitute,2 4,Serbia
Mr Toma TASOVAC,Belgrade,Mr Toma TASOVAC,20.5,44.8333,MC Member,,Serbia
Prof Cvetana KRSTEV,Belgrade,Prof Cvetana KRSTEV,20.5,44.8333,MC Member,1 2,Serbia
Prof Katja MIHURKO PONIŽ,Nova Gorica,Prof Katja MIHURKO PONIŽ,13.6500  ,45.9500  ,MC Member,4,Slovenia
Prof Marko JUVAN,Ljubljana,Prof Marko JUVAN,14.5000,46.0667  ,MC Member,3,Slovenia
Prof Ales VAUPOTIC,Nova Gorica,Prof Ales VAUPOTIC,13.6500  ,45.9500  ,MC Substitute,2 3,Slovenia
Dr Borja NAVARRO-COLORADO,San Vicente del Raspeig,Dr Borja NAVARRO-COLORADO,-0.5167,38.4000 ,MC Member,1 2,Spain
Dr M. Dolores JIMÉNEZ-LÓPEZ,Tarragona,Dr M. Dolores JIMÉNEZ-LÓPEZ,1.2500  ,41.1167,MC Substitute,2,Spain
Dr Miriam SEGHIRI,Málaga,Dr Miriam SEGHIRI,-4.4167,36.7167,MC Substitute,,Spain
Prof María José VEGA,Barcelona,Prof María José VEGA,2.1741,41.3984,MC Member,3,Spain
Prof Rosario ARIAS,Málaga,Prof Rosario ARIAS,-4.4167,36.7167,MC Substitute,3,Spain
Dr J. Berenike HERRMANN,Basel,Dr J. Berenike HERRMANN,7.5733,47.5584,MC Member,1 2,Switzerland
Prof Gerhard LAUER,Basel,Prof Gerhard LAUER,7.5733,47.5584,MC Member,,Switzerland
Dr Pieter FRANCOIS,Oxford,Dr Pieter FRANCOIS,-1.2500,51.7500,MC Member,1 3,United Kingdom
Mr Lou BURNARD,Oxford,Mr Lou BURNARD,-1.2500,51.7500,MC Member,1,United Kingdom
Dr Arianna CIULA,London,Dr Arianna CIULA,-0.0931,51.5142,MC Substitute,1 2,United Kingdom
,,,,,,,
, ,,,,,,
